Simple linear regression
…
Distance

Height

Weight

Always remember to check that the way your variables are classified in R is the same format you expect. It is a common mistake for a variable that should be numeric to be classified as a Factor, or a Factor as a character string etc.

You can check the way R has classified your variables using the Environment panel, printing the object by typing its name in the R console, or using the str() function.

If the classification R has given the variables doesn’t match what you expect, you can change the classification using functions such as: as.numeric(), as.factor(), or as.integer(). These as. functions exist for every data type.

ExampleData

## # A tibble: 100 x 3
##         x     y     z
##     <dbl> <dbl> <dbl>
##  1   4.77  1        1
##  2   5.02  1.49     2
##  3  -7.98  1.99     3
##  4  -7.3   2.48     4
##  5 -23.0   2.98     5
##  6  13.2   3.47     6
##  7  16.4   3.97     7
##  8   5.71  4.46     8
##  9  26.6   4.96     9
## 10  11.2   5.45    10
## # … with 90 more rows
…
https://books.google.no/books?id=kkRKJCofvXMC&pg=PA445&lpg=PA445&dq=max+recorded+sea+otter+dive&source=bl&ots=HX_ypXO6zq&sig=ACfU3U1ugMJRJtd21NLfrpDVirSmCx15kA&hl=en&sa=X&ved=2ahUKEwjo29WxotbpAhUGy6YKHQzmDHMQ6AEwAHoECAsQAQ#v=onepage&q=max%20recorded%20sea%20otter%20dive&f=false

https://nammco.no/marinemammals/

https://www.fisheries.noaa.gov/species/

https://www.doc.govt.nz/nature/native-animals/marine-mammals/--->

You can find the data here if you want to follow along with this example. It is a .csv file with column headings.

The first thing we want to do with the data once it is imported is to look at it. We will do this by looking at the raw data and making a plot.

DiveData

## # A tibble: 30 x 4
##    Species                 MaxDepth BodySizeKG Group   
##    <fct>                      <int>      <dbl> <fct>   
##  1 Orca                         264       4500 Twhale  
##  2 WeddellSeal                  741        500 Pinniped
##  3 LongFinnedPilot              828       1300 Twhale  
##  4 ShortFinnedPilot            1019       2000 Twhale  
##  5 BlainvillesBeakedWhale      1408        900 Twhale  
##  6 NorthernBottlenoseWhale     1453       8000 Twhale  
##  7 SouthernElephantSeal        1653       3000 Pinniped
##  8 BairdsBeakedWhale           1777      12000 Twhale  
##  9 SpermWhale                  2035      27000 Twhale  
## 10 CuviersBeakedWhale          2992       2500 Twhale  
## # … with 20 more rows
…
